Fiscal Characteristics of Major US Public Transit Systems – Statistical and Data Analysis Projects
…
How many trips were taken on the NYC Subway (Heavy Rail) in May 2024?

How much did NYC subway ridership fall between April 2019 and April 2020?

To find the transit agency with the most total VRM from the sample, I need to group the data based on the Agency and its respective VRM total. It turns out the MTA New York City Transit has reign over total VRM among the agencies with 10,832,855,350 miles.

Code

most_vrm_agency <- USAGE |>
  group_by(Agency) |>
  summarize(total_vrm = sum(VRM)) |>
  arrange(desc(total_vrm))
print(most_vrm_agency)

# A tibble: 677 × 2
   Agency                                                              total_vrm
   <chr>                                                                   <dbl>
 1 MTA New York City Transit                                             1.08e10
 2 New Jersey Transit Corporation                                        5.65e 9
 3 Los Angeles County Metropolitan Transportation Authority              4.35e 9
 4 Washington Metropolitan Area Transit Authority                        2.82e 9
 5 Chicago Transit Authority                                             2.81e 9
 6 Southeastern Pennsylvania Transportation Authority                    2.67e 9
 7 Massachusetts Bay Transportation Authority                            2.38e 9
 8 Pace, the Suburban Bus Division of the Regional Transportation Aut…   2.38e 9
 9 Metropolitan Transit Authority of Harris County, Texas                2.27e 9
10 Denver Regional Transportation District                               1.99e 9
# ℹ 667 more rows
…
What is the average amount of trips taken in the New York–Jersey City–Newark, NY–NJ area based on the season from 2018 to 2022?

The areas of interest require filtering a date, grouping by a variable, and aggregating a variable. In January 2022, the New York City–Jersey City–Newark, NY–NJ area recorded the most trips with 173,719,501 trips. The second-ranked area had only 26,158,306 trips, accounting for just 15% of the total for New York–New Jersey.

Code

library(dplyr)
popular_area <- USAGE |>
 filter(month %in% c(as.Date("2022-01-01"))) |>
 group_by(metro_area) |>
 summarize(total_trips = sum(UPT)) |>
 arrange(desc(total_trips))
print(popular_area)

# A tibble: 295 × 2
   metro_area                            total_trips
   <chr>                                       <dbl>
 1 New York--Jersey City--Newark, NY--NJ   173719501
 2 Los Angeles--Long Beach--Anaheim, CA     26158306
 3 Chicago, IL--IN                          16569817
 4 San Francisco--Oakland, CA               13571654
 5 Boston, MA--NH                           13220711
 6 Philadelphia, PA--NJ--DE--MD             12972351
 7 Washington--Arlington, DC--VA--MD        11229936
 8 Miami--Fort Lauderdale, FL                8318327
 9 Seattle--Tacoma, WA                       8250602
10 San Diego, CA                             4602265
# ℹ 285 more rows

This metric references the second question from the previous question. Now we’re taking a look at history, seeing exactly when this mode peaked. The data tells us that this happened in October 2018, with 478,806,384 trips. Evidently, the lower ranked months had similar values too. This shows strong consistency for the bus transit mode across the US.

Code

bus_trips <- USAGE |>
 filter(Mode == "Bus") |>
 group_by(month) |>
 summarize(total_bus_trips = sum(UPT)) |>
 arrange(desc(total_bus_trips))
print(bus_trips)

# A tibble: 271 × 2
   month      total_bus_trips
   <date>               <dbl>
 1 2008-10-01       478806384
 2 2014-10-01       457089165
 3 2013-10-01       456214396
 4 2007-10-01       455193568
 5 2008-09-01       454077576
 6 2006-10-01       450496480
 7 2006-03-01       450386143
 8 2012-10-01       448572088
 9 2008-05-01       442961523
10 2009-10-01       441007281
# ℹ 261 more rows
…
# Filter the 2022 data for only those agencies
USAGE_2022_ANNUAL <- USAGE |>
  filter(year(month) == 2022) |> # Only data from 2022
  filter(Agency %in% agencies_avg_upt$Agency) |> # Filter agencies that meet avg UPT condition
  group_by(`NTD ID`, Agency, metro_area, Mode) |> # Group by relevant columns
  summarize(
    UPT = sum(UPT), # Sum UPT for 2022
    VRM = sum(VRM) # Sum VRM for 2022
  ) |>
  ungroup() |>
  mutate(`NTD ID` = as.double(`NTD ID`)) # Convert NTD ID to double for joining

print(USAGE_2022_ANNUAL) # Output the filtered table

# A tibble: 295 × 6
   `NTD ID` Agency                                metro_area Mode     UPT    VRM
      <dbl> <chr>                                 <chr>      <chr>  <dbl>  <dbl>
 1        1 King County                           Seattle--… Bus   5.40e7 6.16e7
 2        1 King County                           Seattle--… Dema… 6.63e5 1.29e7
 3        1 King County                           Seattle--… Ferr… 4.00e5 5.12e4
 4        1 King County                           Seattle--… Stre… 1.12e6 1.80e5
 5        1 King County                           Seattle--… Trol… 9.58e6 2.64e6
 6        1 King County                           Seattle--… Vanp… 7.03e5 4.41e6
 7        8 Tri-County Metropolitan Transportati… Portland,… Bus   3.26e7 1.95e7
 8        8 Tri-County Metropolitan Transportati… Portland,… Dema… 4.90e5 8.49e6
 9        8 Tri-County Metropolitan Transportati… Portland,… Hybr… 1.15e5 1.01e5
10        8 Tri-County Metropolitan Transportati… Portland,… Ligh… 2.05e7 8.11e6
# ℹ 285 more rows
…
Which transit system (agency and mode) has the lowest expenses per VRM?

Which transit system (agency and mode) has the highest total fares per VRM?

In 2022, the MTA New York City Transit had the most UPT via the Heavy Rail (subway). There was a total of 1,793,073,801 trips taken.

Code

most_UPT_2022 <- USAGE_AND_FINANCIALS |>
  group_by(Agency, Mode) |>
  summarize(most_UPT = UPT, .groups = 'drop') |>
  arrange(desc(most_UPT)) 
print(most_UPT_2022)

# A tibble: 294 × 3
   Agency                                                   Mode        most_UPT
   <chr>                                                    <chr>          <dbl>
 1 MTA New York City Transit                                Heavy Rail    1.79e9
 2 MTA New York City Transit                                Bus           4.59e8
 3 Los Angeles County Metropolitan Transportation Authority Bus           1.94e8
 4 Chicago Transit Authority                                Bus           1.40e8
 5 New Jersey Transit Corporation                           Bus           1.13e8
 6 Chicago Transit Authority                                Heavy Rail    1.04e8
 7 MTA Bus Company                                          Bus           1.00e8
 8 Washington Metropolitan Area Transit Authority           Heavy Rail    9.84e7
 9 Southeastern Pennsylvania Transportation Authority       Bus           9.66e7
10 Washington Metropolitan Area Transit Authority           Bus           8.99e7
# ℹ 284 more rows

In 2022, the County of Miami-Dade via vanpool had the highest farebox recovery with a ratio of 1.67.

Code

highest_farebox <- USAGE_AND_FINANCIALS |>
  group_by(Agency, Mode) |>
  summarize(total_fares = `Total Fares`, total_expenses = Expenses, .groups = 'drop') |>
  mutate(recovery = total_fares / total_expenses) |>
  arrange(desc(recovery))
print(highest_farebox)

# A tibble: 294 × 5
   Agency                              Mode  total_fares total_expenses recovery
   <chr>                               <chr>       <dbl>          <dbl>    <dbl>
 1 County of Miami-Dade                Vanp…     1987879        1191874    1.67 
 2 VIA Metropolitan Transit            Vanp…     1553610        1298365    1.20 
 3 Capital District Transportation Au… Vanp…      521920         456318    1.14 
 4 Rhode Island Public Transit Author… Vanp…      422509         442982    0.954
 5 Los Angeles County Metropolitan Tr… Vanp…     9148488        9610858    0.952
 6 Puerto Rico Highway and Transporta… Publ…    11764061       12738561    0.923
 7 Orange County Transportation Autho… Vanp…     1634773        1772673    0.922
 8 Anaheim Transportation Network      Bus       8438881        9751600    0.865
 9 Regional Public Transportation Aut… Vanp…     2154880        2974167    0.725
10 Transportation District Commission… Vanp…      253959         374019    0.679
# ℹ 284 more rows

In 2022, the Anaheim Transportation Network via bus had the lowest expenses per trip with a ratio of 1.28.

Code

low_expense_UPT <- USAGE_AND_FINANCIALS |>
  group_by(Agency, Mode) |>
  summarize(total_expenses = Expenses, total_UPT = UPT, .groups = 'drop') |>
  mutate(lowestUPT = total_expenses/total_UPT) |>
  arrange(lowestUPT)
print(low_expense_UPT)

# A tibble: 294 × 5
   Agency                               Mode  total_expenses total_UPT lowestUPT
   <chr>                                <chr>          <dbl>     <dbl>     <dbl>
 1 Anaheim Transportation Network       Bus          9751600    7.64e6      1.28
 2 Valley Metro Rail, Inc.              Stre…         542700    3.64e5      1.49
 3 University of Georgia                Bus          6267845    2.71e6      2.31
 4 Hillsborough Area Regional Transit … Stre…        2780595    1.14e6      2.45
 5 University of Michigan Parking and … Bus         11990864    4.75e6      2.52
 6 The Greater Cleveland Regional Tran… Bus …        3938564    1.54e6      2.56
 7 Ames Transit Agency                  Bus         11291892    3.93e6      2.87
 8 MTA New York City Transit            Heav…     5349756161    1.79e9      2.98
 9 City of Tucson                       Stre…        4436350    1.49e6      2.99
10 County of Miami-Dade                 Vanp…        1191874    3.95e5      3.02
# ℹ 284 more rows

In 2022, the Tri-County Metropolitan Transportation District of Oregon had the highest total fares per trip with a ratio of 11.7.

Code

high_fare_UPT <- USAGE_AND_FINANCIALS |>
  group_by(Agency, Mode) |>
  summarize(total_fares = `Total Fares`, total_UPT = UPT, .groups = 'drop') |>
  mutate(fare_UPT_ratio = total_fares/total_UPT) |>
  arrange(desc(fare_UPT_ratio))
print(high_fare_UPT)

# A tibble: 294 × 5
   Agency                             Mode  total_fares total_UPT fare_UPT_ratio
   <chr>                              <chr>       <dbl>     <dbl>          <dbl>
 1 Tri-County Metropolitan Transport… Dema…     5751426    490120          11.7 
 2 Pittsburgh Regional Transit        Dema…     8795926    873755          10.1 
 3 Santa Cruz Metropolitan Transit D… Comm…     1244850    131352           9.48
 4 Metro-North Commuter Railroad Com… Comm…   448196125  54517695           8.22
 5 King County                        Vanp…     5484481    702709           7.80
 6 Southern California Regional Rail… Comm…    28194015   3670107           7.68
 7 City of Madison                    Dema…      702399     92341           7.61
 8 Los Angeles County Metropolitan T… Vanp…     9148488   1350335           6.77
 9 Capital District Transportation A… Vanp…      521920     78507           6.65
10 Orange County Transportation Auth… Vanp…     1634773    255639           6.39
# ℹ 284 more rows

In 2022, the VIA Metropolitan Transit had the lowest expenses per vehicle revenue mile with a ratio of 0.37.

Code

low_expense_VRM <- USAGE_AND_FINANCIALS |>
  group_by(Agency, Mode) |>
  summarize(total_expenses = Expenses, total_VRM = VRM, .groups = 'drop') |>
  mutate(lowestVRM = total_expenses/total_VRM) |>
  arrange(lowestVRM)
print(low_expense_VRM)

# A tibble: 294 × 5
   Agency                               Mode  total_expenses total_VRM lowestVRM
   <chr>                                <chr>          <dbl>     <dbl>     <dbl>
 1 VIA Metropolitan Transit             Vanp…        1298365   3505579     0.370
 2 County of Miami-Dade                 Vanp…        1191874   3091052     0.386
 3 Los Angeles County Metropolitan Tra… Vanp…        9610858  16551651     0.581
 4 Capital Metropolitan Transportation… Vanp…        1813619   2917165     0.622
 5 Capital District Transportation Aut… Vanp…         456318    591014     0.772
 6 Transportation District Commission … Dema…        8340458  10745835     0.776
 7 Rhode Island Public Transit Authori… Vanp…         442982    567277     0.781
 8 Regional Public Transportation Auth… Vanp…        2974167   3731089     0.797
 9 Orange County Transportation Author… Vanp…        1772673   2219875     0.799
10 Transportation District Commission … Vanp…         374019    334324     1.12 
# ℹ 284 more rows

In 2022, the Jacksonville Transportation Authority had the highest total fares per vehicle revenue mile with a ratio of 158.

Code

high_fare_VRM <- USAGE_AND_FINANCIALS |>
  group_by(Agency, Mode) |>
  summarize(total_fares = `Total Fares`, total_VRM = VRM, .groups = 'drop') |>
  mutate(fare_VRM_ratio = total_fares/total_VRM) |>
  arrange(desc(fare_VRM_ratio))
print(high_fare_VRM)

# A tibble: 294 × 5
   Agency                             Mode  total_fares total_VRM fare_VRM_ratio
   <chr>                              <chr>       <dbl>     <dbl>          <dbl>
 1 Jacksonville Transportation Autho… Ferr…     1432549      9084         158.  
 2 Washington State Ferries           Ferr…    57644277    738094          78.1 
 3 City and County of San Francisco   Cabl…    10801075    199160          54.2 
 4 Pittsburgh Regional Transit        Incl…      401960      7736          52.0 
 5 New Orleans Regional Transit Auth… Ferr…     1019330     21937          46.5 
 6 King County                        Ferr…     1715265     51236          33.5 
 7 Massachusetts Bay Transportation … Ferr…     4309134    213585          20.2 
 8 Transportation District Commissio… Ferr…      272923     18510          14.7 
 9 Anaheim Transportation Network     Bus       8438881    895608           9.42
10 Port Authority Trans-Hudson Corpo… Heav…   113506101  12565499           9.03
# ℹ 284 more rows
…
